[2018-08-07 02:00:46.701] System is sleeping (Time = 15 minutes)...Sleep system more than 15 minutes: Sytem Start on  2018-08-07 02:30:2
[2018-08-07 01:36:27.224] [Error]: Generate RSS phaze in Extract Urls method => https://ababiil.net/yemen-news/feed
com.sun.syndication.io.ParsingFeedException: Invalid XML: Error on line 232: The element type "description" must be terminated by the matching end-tag "</description>".
at com.sun.syndication.io.WireFeedInput.build(WireFeedInput.java:198)
at com.sun.syndication.io.SyndFeedInput.build(SyndFeedInput.java:123)
at com.sun.syndication.io.WireFeedInput.build(WireFeedInput.java:194)
Error :java.io.IOException: Underlying input stream returned zero bytes
[2018-08-07 01:37:27.855] [Error]: Generate RSS phaze in Extract Urls method => https://www.enabbaladi.net/feed
com.sun.syndication.io.ParsingFeedException: Invalid XML: Error on line 182: The element type "description" must be terminated by the matching end-tag "</description>".
at com.sun.syndication.io.WireFeedInput.build(WireFeedInput.java:198)
[2018-08-07 02:49:46.700] [TimeOut] => Link: http://localhost:5000/normalizer?text=%D8%A8%D8%BA%D8%AF%D8%A7%D8%AF%2F+%D8%A7%D9%84%D8%BA%D8%AF+%D8%A8%D8%B1%D8%B3+%D8%AD%D8%A7%D9%88%D8%B1%D9%87%D9%85%3A+%D8%B9%D9%84%D9%8A+%D9%88%D8%AC%D9%8A%D9%87+%D9%81%D9%8A+%D9%84%D8%AD%D8%B8%D8%A9%D9%8D+%D8%AD%D8%B1%D8%AC%D8%A9+%D9%85%D9%86+%D8%AC%D9%88%D9%91%D9%8D+%D8%B9%D8%B1%D8%A7%D9%82%D9%8A%D9%91+%D9%85%D8%AA%D9%88%D8%AA%D8%B1%D8%8C+%D8%B8%D9%87%D8%B1+%D9%85%D8%AC%D9%85%D9%88%D8%B9%D8%A9+%D8%B4%D8%A8%D8%A7%D8%A8+%D8%A8%D8%A8%D8%B1%D9%86%D8%A7%D9%85%D8%AC+%D8%AA%D9%84%D9%81%D8%B2%D9%8A%D9%88%D9%86%D9%8A+%D8%AD%D9%85%D9%84+%D8%A7%D8%B3%D9%85+%28%D9%88%D9%84%D8%A7%D9%8A%D8%A9+%D8%A8%D8%B7%D9%8A%D8%AE%29%D8%8C+%D9%84%D9%83%D9%86+%D9%85%D8%A7+%D9%87%D9%88+%D9%88%D8%A7%D8%B6%D8%AD%D8%8C+%D8%A3%D9%86+%D8%A7%D9%84%D8%A3%D9%85%D8%B1+%D8%A3%D9%83%D8%A8%D8%B1+%D9%85%D9%86+%D9%85%D8%AC%D8%B1%D8%AF+%D8%A8%D8%B1%D9%86%D8%A7%D9%85%D8%AC+%D8%AA%D9%84%D9%81%D8%B2%D9%8A%D9%88%D9%86%D9%8A%D8%8C+%D9%81%D9%85%D8%A7+%D9%82%D8%AF%D9%91%D9%85%D9%88%D9%87+%D9%86%D8%AC%D8%AD+%D8%A8%D8%B7%D8%B1%D9%8A%D9%82%D8%A9%D9%8D+%D9%85%D9%84%D9%81%D8%AA%D8%A9%D8%8C+%D8%AD%D8%AA%D9%89+%D9%83%D8%A3%D9%86%D9%91%D9%8E+%D8%A7%D9%84%D9%83%D9%88%D9%85%D9%8A%D8%AF%D9%8A%D8%A7+%D8%A7%D9%84%D8%B9%D8%B1%D8%A7%D9%82%D9%8A%D8%A9+%D9%84%D9%85+%D8%AA%D9%82%D8%AF%D9%85+%D8%B4%D9%8A%D8%A6%D8%A7%D9%8B+%D9%85%D9%86%D8%B0+2003%D8%8C+%D8%B1%D8%BA%D9%85+%D8%A8%D8%B9%D8%B6+%D8%A7%D9%84%D8%A7%D9%84%D8%AA%D9%85%D8%A7%D8%B9%D8%A7%D8%AA+%D9%87%D9%86%D8%A7+%D9%88%D9%87%D9%86%D8%A7%D9%83.+%D9%85%D8%A7+%D9%87%D9%8A+%D8%AE%D9%84%D8%B7%D8%AA%D9%87%D9%85%D8%9F+%D9%83%D9%8A%D9%81+%D8%A7%D8%AC%D8%AA%D9%85%D8%B9%D9%88%D8%A7%D8%9F+%D9%85%D9%86+%D9%87%D9%85%D8%9F+%D9%84%D9%85%D8%A7%D8%B0%D8%A7+%D9%86%D8%AC%D8%AD%D9%88%D8%A7%D8%9F+%D9%83%D9%8A%D9%81+%D9%81%D9%83%D8%B1%D9%88%D8%A7%D8%9F+%D9%87%D9%83%D8%B0%D8%A7+%D8%A7%D8%B3%D8%AA%D8%B6%D9%81%D9%86%D8%A7%D9%87%D9%85+%D9%88%D8%AA%D8%AD%D8%AF%D8%AB%D9%88%D8%A7+%D9%84%D9%86%D8%A7+%D8%B9%D9%86+%D9%83%D8%AB%D9%8A%D8%B1+%D9%85%D9%86+%D8%A3%D8%B3%D8%B1%D8%A7%D8%B1%D9%87%D9%85.+%D8%B9%D9%84%D9%8A+%D9%81%D8%A7%D8%B6%D9%84%3A+%D8%A7%D9%84%D9%86%D8%AC%D8%A7%D8%AD+%D9%87%D9%88+%D9%85%D8%A7+%D9%8A%D8%AC%D9%85%D8%B9%D9%86%D8%A7+%D9%8A%D8%A8%D8%AF%D9%88+%D8%A3%D9%86+%D9%82%D9%84%D8%A8+%D8%A7%D9%84%D8%B9%D9%85%D9%84+%D9%87%D9%88+%D8%A7%D9%84%D9%81%D9%86%D8%A7%D9%86+%D8%B9%D9%84%D9%8A+%D9%81%D8%A7%D8%B6%D9%84%D8%8C+%D9%88%D9%87%D9%88+%D9%85%D9%82%D8%AF%D9%85+%D8%A8%D8%B1%D8%A7%D9%85%D8%AC+%D9%88%D9%85%D9%85%D8%AB%D9%84+%D9%88%D9%82%D8%AF%D9%91%D9%85+%D8%A3%D8%B9%D9%85%D8%A7%D9%84%D8%A7%D9%8B+%D8%B9%D8%AF%D9%8A%D8%AF%D8%A9+%D9%81%D9%8A%D9%85%D8%A7+%D8%B3%D8%A8%D9%82%D8%8C+%D9%85%D9%86+%D8%A3%D9%87%D9%85%D9%87%D8%A7+%28%D8%B9%D9%84%D8%AC+%D9%85%D9%8A%29+%D8%A8%D8%AB%D9%84%D8%A7%D8%AB%D8%A9+%D8%A3%D8%AC%D8%B2%D8%A7%D8%A1.+%D9%8A%D8%B4%D9%8A%D8%B1+%D8%B9%D9%84%D9%8A+%D9%81%D8%A7%D8%B6%D9%84+%D8%A5%D9%84%D9%89+%D8%A3%D9%86+%D9%86%D8%AC%D8%A7%D8%AD+%D8%A7%D9%84%D8%A8%D8%B1%D9%86%D8%A7%D9%85%D8%AC+%D9%8A%D8%A3%D8%AA%D9%8A+%D8%A8%D8%B3%D8%A8%D8%A8+%D8%A7%D8%AC%D8%AA%D9%87%D8%A7%D8%AF+%D9%81%D8%B1%D9%8A%D9%82%D9%87%D8%8C+%D9%88%D9%8A%D8%B6%D9%8A%D9%81+%22%D8%A7%D8%AC%D8%AA%D9%87%D8%AF+%D8%A7%D9%84%D8%B4%D8%A8%D8%A7%D8%A8+%D9%88%D9%86%D8%A7%D9%84%D9%88%D8%A7+%D9%85%D8%A7+%D8%A3%D8%B1%D8%A7%D8%AF%D9%88%D9%87%D8%8C+%D9%81%D9%8A+%D9%83%D9%84%D9%91+%D8%AD%D9%84%D9%82%D8%A9+%D9%86%D9%81%D9%83%D8%B1%3A+%D8%A5%D9%86+%D9%85%D8%A7+%D9%82%D8%AF%D9%85%D9%86%D8%A7%D9%87+%D8%AC%D9%8A%D8%AF%D8%8C+%D9%81%D9%83%D9%8A%D9%81+%D9%8A%D9%85%D9%83%D9%86+%D8%A3%D9%86+%D9%86%D9%82%D8%AF%D9%85+%D8%B4%D9%8A%D8%A6%D8%A7%D9%8B+%D8%A3%D9%81%D8%B6%D9%84+%D8%A7%D9%84%D9%85%D8%B1%D8%A9+%D8%A7%D9%84%D9%85%D9%82%D8%A8%D9%84%D8%A9%D8%9F%D8%8C+%D9%88%D9%87%D8%B0%D8%A7+%D9%87%D9%88+%D9%86%D8%AA%D8%A7%D8%AC+%D8%A7%D9%84%D8%B9%D9%85%D9%84+%D8%A7%D9%84%D9%85%D8%B3%D8%AA%D9%85%D8%B1+%D8%A7%D9%84%D8%AF%D8%A4%D9%88%D8%A8%D8%8C+%D8%A7%D9%84%D8%B0%D9%8A+%D9%8A%D8%B5%D9%84+%D9%85%D8%B1%D8%AD%D9%84%D8%A9+%D9%82%D9%84%D8%A9+%D9%86%D9%88%D9%85+%D8%A7%D9%84%D9%83%D8%A7%D8%AF%D8%B1%D8%8C+%D8%AE%D8%B5%D9%88%D8%B5%D8%A7%D9%8B+%D9%81%D9%8A+%D8%A3%D9%8A%D8%A7%D9%85+%D8%A7%D9%84%D8%AA%D8%B5%D9%88%D9%8A%D8%B1+%D9%88%D8%A7%D9%84%D9%85%D9%88%D9%86%D8%AA%D8%A7%D8%AC+%D9%88%D8%A7%D9%84%D9%83%D8%AA%D8%A7%D8%A8%D8%A9%D8%8C+%D9%88%D8%B1%D8%A7%D8%AD%D8%AA%D9%86%D8%A7+%D8%AE%D9%84%D8%A7%D9%84+%D8%A7%D9%84%D8%A3%D8%B3%D8%A8%D9%88%D8%B9+%D9%87%D9%88+%D9%8A%D9%88%D9%85+%D9%88%D8%A7%D8%AD%D8%AF%D8%8C+%D9%88%D8%AD%D8%AA%D9%89+%D9%81%D9%8A+%D9%87%D8%B0%D8%A7+%D8%A7%D9%84%D9%8A%D9%88%D9%85+%D9%86%D8%AD%D9%86+%D9%86%D8%AA%D8%AD%D8%AF%D8%AB+%D9%81%D9%8A+%D8%A7%D9%84%D8%B9%D9%85%D9%84%22.+%D9%88%D9%82%D8%AF+%D9%8A%D8%A4%D8%AB%D8%B1+%D8%A7%D9%84%D8%B9%D9%85%D9%84+%D8%AD%D8%AA%D9%89+%D8%B9%D9%84%D9%89+%D8%AD%D9%8A%D8%A7%D8%A9+%D8%B9%D9%84%D9%8A%D9%91+%D9%88%D8%B5%D8%AD%D8%A8%D9%87%D8%8C+%D8%AD%D9%8A%D8%AB+%D9%8A%D8%A8%D9%8A%D9%91%D9%86+%22%D9%83%D8%A7%D9%86+%D8%B3%D9%84%D9%85+%D8%A3%D9%88%D9%84%D9%88%D9%8A%D8%A7%D8%AA%D9%8A+%D9%85%D8%AE%D8%AA%D9%84%D9%81%D8%A7%D8%8C+%D9%88%D9%87%D9%88%3A+%D8%A7%D9%84%D8%B9%D8%A7%D8%A6%D9%84%D8%A9%D8%8C+%D8%AB%D9%85+%D8%A7%D9%84%D8%B3%D9%8A%D9%86%D9%85%D8%A7%D8%8C+%D8%AB%D9%85+%D9%83%D8%B1%D8%A9+%D8%A7%D9%84%D9%82%D8%AF%D9%85%D8%8C+%D8%AB%D9%85+%D8%A7%D9%84%D8%B9%D9%85%D9%84%D8%8C+%D8%A3%D9%85%D8%A7+%D8%A7%D9%84%D8%A2%D9%86%D8%8C+%D9%81%D8%A7%D9%84%D8%B9%D9%85%D9%84+%D9%8A%D8%AA%D8%B5%D8%AF%D8%B1%D8%8C+%D8%AB%D9%85+%D8%B9%D8%A7%D8%A6%D9%84%D8%AA%D9%8A%D8%8C+%D9%88%D8%A8%D9%82%D9%8A%D8%A9+%D8%A7%D9%84%D8%A7%D8%B4%D9%8A%D8%A7%D8%A1%D8%8C+%D9%87%D8%B0%D8%A7+%D8%A5%D9%86+%D8%A8%D9%82%D9%8A+%D8%A3%D8%B5%D9%84%D8%A7+%D8%B4%D9%8A%D8%A1+%D9%81%D9%8A+%D8%AD%D9%8A%D8%A7%D8%AA%D9%8A%D8%8C+%D9%84%D8%A3%D9%86+%D8%A7%D9%84%D8%B9%D9%85%D9%84+%D9%8A%D8%A3%D8%AE%D8%B0+%D9%83%D9%84+%D9%88%D9%82%D8%AA%D9%8A%22.+%D9%88%D9%8A%D8%A4%D9%83%D8%AF+%D9%81%D8%A7%D8%B6%D9%84%3A+%22%D9%88%D9%84%D8%A7%D9%8A%D8%A9+%D8%A8%D8%B7%D9%8A%D8%AE+%D9%8A%D9%88%D8%B5%D9%84+%D8%A7%D9%84%D9%83%D9%88%D9%85%D9%8A%D8%AF%D9%8A%D8%A7+%D8%A7%D9%84%D9%86%D8%B8%D9%8A%D9%81%D8%A9%D8%8C+%D8%A7%D9%84%D8%AE%D8%A7%D9%84%D9%8A%D8%A9+%D9%85%D9%86+%D8%A7%D9%84%D8%A5%D8%B3%D9%81%D8%A7%D9%81%D8%8C+%D9%88%D9%86%D8%AD%D8%B6%D9%91%D8%B1+%D9%84%D9%85%D8%B2%D9%8A%D8%AF+%D9%85%D9%86+%D8%A7%D9%84%D9%85%D9%81%D8%A7%D8%AC%D8%A2%D8%AA%D8%8C+%D9%81%D9%8A%D9%87%D8%A7+%D8%AA%D8%BA%D9%8A%D9%8A%D8%B1+%D9%88%D8%A7%D8%B3%D8%B9+%D9%84%D9%86%D8%B8%D8%B1%D8%A9+%D8%A7%D9%84%D9%85%D8%AA%D9%84%D9%82%D9%8A+%D8%A7%D9%84%D9%89+%D8%A7%D9%84%D9%83%D9%88%D9%85%D9%8A%D8%AF%D9%8A%D8%A7+%D8%A3%D8%B5%D9%84%D8%A7%D8%8C+%D9%88%D9%86%D8%AD%D9%86+%D9%87%D8%AF%D9%81%D9%86%D8%A7+%D8%A7%D9%84%D8%A7%D8%B3%D8%A7%D8%B3%D9%8A+%D9%87%D9%88+%D8%A7%D9%84%D8%AA%D9%85%D9%88%D9%8A%D9%84+%D8%A7%D9%84%D8%B0%D8%A7%D8%AA%D9%8A+%D8%AF%D9%88%D9%86+%D8%A7%D9%84%D8%A7%D8%B9%D8%AA%D9%85%D8%A7%D8%AF+%D8%B9%D9%84%D9%89+%D8%A7%D9%84%D9%82%D9%86%D8%A7%D8%A9%22.+%D9%88%D9%8A%D9%86%D8%B8%D9%85+%D8%B9%D9%84%D9%8A%D9%91+%D9%88%D8%A3%D8%B5%D8%AF%D9%82%D8%A7%D8%A4%D9%87+%D8%B9%D8%AF%D9%91%D8%A9+%D9%85%D8%B4%D8%A7%D8%B1%D9%8A%D8%B9%D8%8C+%D9%85%D9%86+%D8%A8%D9%8A%D9%86%D9%87%D8%A7+%D9%85%D8%B4%D8%A7%D8%B1%D9%83%D8%A7%D8%AA%D9%87%D9%85+%D9%81%D9%8A+%D9%85%D9%87%D8%B1%D8%AC%D8%A7%D9%86%D8%A7%D8%AA+%D9%85%D8%AD%D9%84%D9%8A%D8%A9%D8%8C+%D9%88%D8%AD%D9%81%D9%84%D8%A7%D8%AA+%D8%AA%D8%AE%D8%B1%D9%91%D8%AC%D8%8C+%D9%88%D9%8A%D8%B3%D8%AA%D8%B9%D8%AF%D9%88%D9%86+%D9%84%D8%A5%D9%86%D8%B4%D8%A7%D8%A1+%D9%85%D8%B3%D8%B1%D8%AD%D9%87%D9%85+%D8%A7%D9%84%D8%AE%D8%A7%D8%B5%D8%8C+%D9%87%D8%AF%D9%81%D9%87%D9%85+%22%D8%A5%D8%B9%D8%A7%D8%AF%D8%A9+%D8%A3%D9%85%D8%AC%D8%A7%D8%AF+%D8%A7%D9%84%D9%85%D8%B3%D8%B1%D8%AD+%D8%A7%D9%84%D8%B9%D8%B1%D8%A7%D9%82%D9%8A%D8%A9%D8%8C+%D9%81%D8%A7%D9%84%D9%86%D8%B5+%D8%A7%D9%84%D8%B0%D9%8A+%D9%86%D9%83%D8%AA%D8%A8%D9%87+%D8%A7%D9%84%D8%A2%D9%86+%D9%84%D8%A7+%D9%8A%D9%82%D9%84%D9%91+%D8%A3%D9%87%D9%85%D9%8A%D8%A9+%D8%B9%D9%86+%28%D8%A8%D9%8A%D8%AA+%D9%88%D8%AE%D9%85%D8%B3+%D8%A8%D9%8A%D8%A8%D8%A7%D9%86%29%D8%8C+%D9%88%28%D8%A7%D9%84%D8%AE%D9%8A%D8%B7+%D9%88%D8%A7%D9%84%D8%B9%D8%B5%D9%81%D9%88%D8%B1%29+%D9%88%D8%BA%D9%8A%D8%B1%D9%87%D8%A7+%D9%85%D9%86+%D9%83%D9%84%D8%A7%D8%B3%D9%8A%D9%83%D9%8A%D8%A7%D8%AA+%D8%A7%D9%84%D9%85%D8%B3%D8%B1%D8%AD+%D8%A7%D9%84%D8%B4%D8%B9%D8%A8%D9%8A+%D9%81%D9%8A+%D8%A7%D9%84%D8%B9%D8%B1%D8%A7%D9%82%22.+%D9%88%D9%8A%D8%AF%D9%8A%D8%B1+%D8%B9%D9%84%D9%8A+%D9%81%D8%A7%D8%B6%D9%84+%D9%81%D8%B1%D9%8A%D9%82%D9%87+%D8%A8%D8%B7%D8%B1%D9%8A%D9%82%D8%A9+%D8%B9%D8%AC%D9%8A%D8%A8%D8%A9%D8%8C+%D8%AD%D8%AA%D9%89+%D8%A3%D9%86%D9%86%D8%A7+%D8%AD%D9%8A%D9%86+%D8%AD%D8%A7%D9%88%D8%B1%D9%86%D8%A7%D9%87%D9%85+%D9%83%D8%A7%D9%86+%D9%88%D8%A7%D8%B6%D8%AD%D8%A7%D9%8B+%D8%B9%D9%84%D9%89+%D9%83%D9%84%D8%A7%D9%85%D9%87%D9%85+%D8%A7%D9%84%D9%85%D8%AD%D8%A8%D8%A9+%D9%81%D9%8A%D9%85%D8%A7+%D8%A8%D9%8A%D9%86%D9%87%D9%85%D8%8C+%D9%88%D8%A3%D9%86+%D9%83%D9%84+%D8%B4%D8%A7%D8%A8+%D9%85%D9%86%D9%87%D9%85+%D9%8A%D8%AA%D8%AD%D8%AF%D8%AB+%D8%B9%D9%86+%D8%A7%D9%84%D8%A2%D8%AE%D8%B1%D9%8A%D9%86+%D8%A3%D9%83%D8%AB%D8%B1+%D9%85%D9%85%D8%A7+%D9%8A%D8%AA%D8%AD%D8%AF%D8%AB+%D8%B9%D9%86+%D9%86%D9%81%D8%B3%D9%87%D8%8C+%D9%81%D9%8A%D8%A4%D9%83%D8%AF+%D8%B9%D9%84%D9%8A+%22%D8%A7%D9%84%D8%AD%D8%B2%D9%85+%D9%88%D8%A7%D9%84%D8%B4%D8%AF%D8%A9+%D8%A7%D9%84%D9%85%D8%B3%D8%AA%D9%85%D8%B1%D8%A7%D9%86+%D9%85%D8%B6%D8%B1%D9%91%D8%A7%D9%86+%D8%A8%D8%A7%D9%84%D9%81%D8%B1%D9%8A%D9%82%D8%8C+%D9%81%D8%B1%D9%8A%D9%82%D9%86%D8%A7+%D8%A3%D8%B5%D9%84%D8%A7+%D8%AA%D8%AD%D8%AA+%D8%B6%D8%BA%D9%88%D8%B7%D8%8C+%D9%81%D9%8A+%D8%B4%D8%AA%D9%89+%D8%A7%D9%84%D8%A3%D9%85%D8%A7%D9%83%D9%86%D8%8C+%D9%81%D9%8A%D8%AC%D8%A8+%D8%A3%D9%86+%D8%AA%D9%83%D9%88%D9%86+%D8%B5%D8%AF%D9%8A%D9%82%D9%87%D9%85%D8%8C+%D9%88%D8%A3%D8%AE%D8%A7%D9%87%D9%85+%D8%A7%D9%84%D8%A3%D9%83%D8%A8%D8%B1%D8%8C+%D8%AB%D9%85+%D8%A7%D9%84%D9%85%D8%AE%D8%B1%D8%AC+%D8%A7%D9%84%D9%82%D8%A7%D8%B3%D9%8A%D8%8C+%D9%84%D9%83%D9%86%D9%86%D8%A7+%D8%B9%D9%84%D9%89+%D8%A7%D9%84%D8%A3%D9%82%D9%84+%D9%85%D8%AA%D8%A3%D9%83%D8%AF%D9%88%D9%86+%D8%A3%D9%86+%D9%84%D9%8A%D8%B3+%D9%85%D9%86+%D9%86%D9%88%D8%A7%D9%8A%D8%A7+%D9%85%D9%8F%D8%A8%D9%8A%D9%91%D8%AA%D8%A9+%D8%B6%D8%AF+%D8%A8%D8%B9%D8%B6%D9%86%D8%A7%D8%8C+%D9%88%D8%A3%D9%86+%D8%A7%D9%84%D9%82%D8%B3%D9%88%D8%A9+%D8%A7%D9%84%D8%AA%D9%8A+%D9%86%D8%B6%D8%B7%D8%B1+%D9%84%D9%87%D8%A7+%D8%A3%D8%AD%D9%8A%D8%A7%D9%86%D8%A7%D9%8B+%D9%81%D9%8A%D9%85%D8%A7+%D8%A8%D9%8A%D9%86%D9%86%D8%A7+%D9%87%D9%88+%D9%85%D9%86+%D8%A3%D8%AC%D9%84+%D8%A5%D9%86%D8%AC%D8%A7%D8%AD+%D8%A7%D9%84%D8%A8%D8%B1%D9%86%D8%A7%D9%85%D8%AC%22.+%D9%85%D9%86+%D8%A7%D9%84%D8%AC%D8%AF%D9%8A%D8%B1+%D8%A8%D8%A7%D9%84%D8%B0%D9%83%D8%B1+%D8%A3%D9%86+%D8%A7%D9%84%D9%81%D8%B1%D9%8A%D9%82+%D9%8A%D8%AC%D8%AA%D9%85%D8%B9+%D9%84%D8%B9%D8%AF%D8%A9+%D8%A3%D9%8A%D9%91%D8%A7%D9%85+%D9%81%D9%8A+%D9%85%D9%86%D8%B2%D9%84+%D8%B9%D9%84%D9%8A+%D9%81%D8%A7%D8%B6%D9%84%D8%8C+%D9%85%D9%86+%D8%A3%D8%AC%D9%84+%D8%A7%D9%84%D9%83%D8%AA%D8%A7%D8%A8%D8%A9+%D9%88%D8%A7%D9%84%D8%A8%D8%B1%D9%88%D9%81%D8%A7%D8%AA%D8%8C+%D9%88%D9%87%D8%B0%D8%A7+%D8%A7%D9%84%D8%B3%D8%A8%D8%A8+%D8%A7%D9%84%D8%A3%D8%B3%D8%A7%D8%B3%D9%8A+%D9%84%D8%B9%D8%AF%D9%85+%D9%88%D8%AC%D9%88%D8%AF+%D8%B9%D9%86%D8%B5%D8%B1+%D9%86%D8%B3%D8%A7%D8%A6%D9%8A%D9%91+%D9%81%D9%8A+%D8%A7%D9%84%D8%A8%D8%B1%D9%86%D8%A7%D9%85%D8%AC%D8%8C+%D8%A8%D8%B3%D8%A8%D8%A8+%D9%85%D8%A8%D9%8A%D8%AA%D9%87%D9%85+%D9%85%D8%B9+%D8%A8%D8%B9%D8%B6%D9%87%D9%85%D8%8C+%D9%88%D8%A7%D9%84%D8%B9%D9%85%D9%84+%D9%88%D9%81%D9%82+%D8%A3%D8%B3%D9%84%D9%88%D8%A8+%D8%A7%D9%84%D9%88%D8%B1%D8%B4%D8%A9+%D8%A7%D9%84%D9%85%D9%81%D8%AA%D9%88%D8%AD%D8%A9.+%D8%A3%D9%85%D9%8A%D8%B1+%D8%B9%D8%A8%D8%AF+%D8%A7%D9%84%D8%AD%D8%B3%D9%8A%D9%86%3A+%D8%B6%D8%B1%D8%A8%D9%86%D9%8A+%D8%A3%D8%AD%D8%AF%D9%87%D9%85+%D9%81%D9%8A+%D8%B4%D8%A7%D8%B1%D8%B9+%D8%A7%D9%84%D9%85%D8%AA%D9%86%D8%A8%D9%8A%21+%D8%A3%D9%85%D8%A7+%D8%A3%D9%85%D9%8A%D8%B1+%D8%B9%D8%A8%D8%AF+%D8%A7%D9%84%D8%AD%D8%B3%D9%8A%D9%86%D8%8C+%D9%81%D9%87%D9%88+%D9%88%D8%B9%D9%84%D9%89+%D8%A7%D9%84%D8%B1%D8%BA%D9%85+%D9%85%D9%86+%D8%B5%D8%BA%D8%B1+%D8%B3%D9%86%D9%87+%D8%A7%D9%84%D9%86%D8%B3%D8%A8%D9%8A%D9%91+%28%D9%85%D9%88%D8%A7%D9%84%D9%8A%D8%AF+1994%29+%D9%84%D9%83%D9%86%D9%91+%D8%A3%D8%A8%D9%88%D8%A7%D8%A8+%D8%A7%D9%84%D9%86%D8%AC%D8%A7%D8%AD+%D9%83%D8%A7%D9%86%D8%AA+%D8%A3%D9%85%D8%A7%D9%85%D9%87+%D9%85%D9%8F%D8%B4%D8%B1%D8%B9%D8%A9%D8%8C+%D9%88%D8%A8%D8%BA%D8%B6%D9%88%D9%86+%D8%B9%D8%A7%D9%85%D9%8A%D9%86+%D9%83%D8%A7%D9%86+%D8%AD%D8%A7%D8%B6%D8%B1%D8%A7%D9%8B+%D9%81%D9%8A+%D9%88%D8%A7%D8%AD%D8%AF+%D9%85%D9%86+%D8%A3%D9%87%D9%85+%D8%A7%D9%84%D8%A3%D8%B9%D9%85%D8%A7%D9%84+%D8%A7%D9%84%D8%AF%D8%B1%D8%A7%D9%85%D9%8A%D8%A9+%28%D9%88%D8%A7%D8%AF%D9%8A+%D8%A7%D9%84%D8%B3%D9%84%D8%A7%D9%85%29%D8%8C+%D8%AB%D9%85+%D8%A8%D8%B9%D8%B1%D8%B6%D9%8D+%D9%85%D8%B3%D8%B1%D8%AD%D9%8A%D9%91+%D9%85%D8%A4%D8%AB%D8%B1+%28%D8%A5%D8%B9%D8%B2%D9%8A%D8%B2%D8%A9%29%D8%8C+%D9%88%D8%A7%D9%84%D8%A2%D9%86+%D9%8A%D9%84%D9%82%D8%A8%D9%87+%D8%A3%D8%B5%D8%AF%D9%82%D8%A7%D8%A4%D9%87+%D8%A8%D9%80%22%D9%85%D9%8A%D8%B3%D9%8A+%D9%88%D9%84%D8%A7%D9%8A%D8%A9+%D8%A8%D8%B7%D9%8A%D8%AE%22%D8%8C+%D9%81%D9%8A+%D8%A5%D8%B4%D8%A7%D8%B1%D8%A9+%D8%A7%D9%84%D9%89+%D8%A3%D9%87%D9%85%D9%8A%D8%AA%D9%87.+%D9%8A%D8%A4%D9%83%D8%AF+%D8%A3%D9%85%D9%8A%D8%B1%D8%8C+%D8%A3%D9%88+%D8%A3%D9%85%D9%88%D8%B1%D9%8A+%D8%A3%D9%86%D9%87+%D9%82%D8%AF%D9%91%D9%85+%22%D9%85%D8%B3%D8%B1%D8%AD%D9%8A%D8%A9+%D9%81%D9%8A+%D8%A7%D9%84%D8%AD%D9%84%D8%A9+%D9%85%D9%86+%D8%A5%D8%AE%D8%B1%D8%A7%D8%AC+%D8%BA%D8%B3%D8%A7%D9%86+%D8%A7%D8%B3%D9%85%D8%A7%D8%B9%D9%8A%D9%84+%D8%A8%D8%A5%D9%84%D8%AD%D8%A7%D8%AD%D9%8D+%D9%85%D9%86%D9%87%D8%8C+%D9%88%D9%86%D8%AC%D8%AD%D8%AA+%D8%A8%D8%B4%D9%83%D9%84%D9%8D+%D8%AC%D9%8A%D8%AF%D8%8C+%D9%88%D8%A8%D8%B9%D8%AF%D9%87%D8%A7+%D8%A7%D8%AA%D8%B5%D9%84+%D8%A8%D9%8A+%D8%B9%D9%84%D9%8A+%D9%88%D9%82%D8%A7%D9%84%3A+%D8%A3%D8%B1%D9%8A%D8%AF+%D8%A3%D9%86+%D8%AA%D9%83%D9%88%D9%86+%D9%85%D8%B9%D9%8A+%D9%81%D9%8A+%28%D9%88%D9%84%D8%A7%D9%8A%D8%A9+%D8%A8%D8%B7%D9%8A%D8%AE%29%D8%8C+%D9%88%D9%87%D9%83%D8%B0%D8%A7+%D8%AA%D8%B9%D9%84%D9%82%D8%AA%D9%8F+%D8%AC%D8%AF%D8%A7+%D8%A8%D8%A7%D9%84%D9%85%D8%AC%D9%85%D9%88%D8%B9%D8%A9+%D8%A7%D9%84%D8%AA%D9%8A+%D9%85%D8%B9%D9%8A%22%D8%8C+%D9%85%D8%B9+%D9%87%D8%B0%D8%A7%D8%8C+%D9%8A%D8%B4%D9%8A%D8%B1+%D8%A3%D9%85%D9%88%D8%B1%D9%8A+%22%D8%A3%D8%AD%D8%A8%D9%91+%D8%A7%D9%84%D9%85%D8%B3%D8%B1%D8%AD+%D8%A7%D9%84%D8%AC%D8%A7%D8%AF+%D8%AC%D8%AF%D8%A7%22.+%D8%A3%D9%85%D9%88%D8%B1%D9%8A+%D9%8A%D8%AA%D8%AD%D8%AF%D8%AB+%22%D8%A3%D9%86%D8%A7+%D8%B3%D8%B9%D9%8A%D8%AF+%D9%84%D8%A3%D9%86+%D9%85%D8%A7+%D8%A7%D9%82%D9%88%D9%84%D9%87+%D9%8A%D8%AA%D8%AD%D8%AF%D8%AB+%D8%A8%D9%87+%D8%A7%D9%84%D9%86%D8%A7%D8%B3%D8%8C+%D9%88%D9%8A%D8%AD%D8%A8%D9%87%D8%8C+%D9%88%D8%A3%D8%B3%D9%85%D8%B9%D9%87%D8%A7+%D8%AD%D8%AA%D9%89+%D9%85%D9%86+%D8%A3%D9%87%D9%84%D9%8A%D8%8C+%D9%88%D9%87%D8%B0%D8%A7+%D8%A7%D9%84%D9%81%D8%B6%D9%84+%D9%84%D8%B9%D9%84%D9%8A+%D9%81%D8%A7%D8%B6%D9%84%D8%8C+%D9%87%D9%88+%D8%A7%D9%84%D8%B0%D9%8A+%D9%8A%D9%82%D8%AF%D9%85%D9%86%D9%8A+%D8%A8%D8%B7%D8%B1%D9%8A%D9%82%D8%A9+%D8%B5%D8%AD%D9%8A%D8%AD%D8%A9+%D9%88%D8%AC%D8%B9%D9%84+%D8%A7%D9%84%D9%86%D8%A7%D8%B3+%D9%8A%D8%AD%D8%A8%D9%88%D9%86%D9%86%D9%8A%22.+%D9%84%D9%83%D9%86+%D9%85%D8%B9+%D9%87%D8%B0%D8%A7%D8%8C+%D9%8A%D8%A8%D8%AF%D9%8A+%D8%A3%D9%85%D9%88%D8%B1%D9%8A+%D8%A7%D9%84%D9%85%D8%AD%D8%A8%D9%88%D8%A8+%D8%A7%D9%86%D8%B2%D8%B9%D8%A7%D8%AC%D9%87+%D9%85%D9%86+%D8%A7%D9%84%D8%B0%D9%8A%D9%86+%22%D9%8A%D8%B9%D8%A8%D8%B1%D9%88%D9%86+%D8%B9%D9%86+%D8%AD%D8%A8%D9%87%D9%85+%D8%A8%D8%B7%D8%B1%D9%8A%D9%82%D8%A9+%D8%B3%D9%8A%D8%A6%D8%A9%D8%8C+%D9%87%D9%86%D8%A7%D9%83+%D9%85%D9%8E%D9%86+%D9%8A%D8%B9%D8%A8%D8%B1+%D8%B9%D9%86+%D9%85%D8%AD%D8%A8%D8%AA%D9%87+%D9%88%D8%A5%D8%B9%D8%AC%D8%A7%D8%A8%D9%87+%D8%A8%D8%B7%D8%B1%D9%8A%D9%82%D8%A9%D9%8D+%D8%A5%D9%8A%D8%AC%D8%A7%D8%A8%D9%8A%D8%A9+%D9%8A%D8%AC%D8%B9%D9%84%D9%83+%D8%AA%D9%81%D8%B1%D8%AD+%D9%88%D8%AA%D8%B9%D9%88%D8%AF+%D9%84%D9%84%D9%85%D9%86%D8%B2%D9%84+%D9%88%D8%A3%D9%86%D8%AA+%D8%AA%D8%B1%D9%8A%D8%AF+%D8%AA%D9%82%D8%AF%D9%8A%D9%85+%D8%A3%D8%B4%D9%8A%D8%A7%D8%A1+%D8%A3%D9%81%D8%B6%D9%84%D8%8C+%D9%84%D9%83%D9%86+%D9%87%D9%86%D8%A7%D9%83+%D9%85%D9%86+%D9%8A%D8%B9%D8%A8%D8%B1+%D8%A8%D8%B7%D8%B1%D9%8A%D9%82%D8%A9+%D8%B3%D9%8A%D8%A6%D8%A9%D8%8C+%D9%88%D8%B0%D8%A7%D8%AA+%D9%85%D8%B1%D8%A9+%D9%81%D9%8A+%D8%B4%D8%A7%D8%B1%D8%B9+%D8%A7%D9%84%D9%85%D8%AA%D9%86%D8%A8%D9%8A+%D8%AC%D8%A7%D8%A1+%D8%A3%D8%AD%D8%AF%D9%87%D9%85+%D9%88%D9%82%D8%A7%D9%84+%D9%84%D9%8A+%28%D8%A7%D9%86%D8%AA+%D8%A7%D9%85%D9%88%D8%B1%D9%8A%D8%9F%29+%D9%81%D9%82%D9%84%D8%AA%D9%8F+%28%D9%86%D8%B9%D9%85%29+%D9%81%D8%B6%D8%B1%D8%A8%D9%86%D9%8A%D8%8C+%D8%AD%D9%8A%D9%86%D9%87%D8%A7+%D9%81%D9%82%D8%AF%D8%AA%D9%8F+%D8%A3%D8%B9%D8%B5%D8%A7%D8%A8%D9%8A+%D9%85%D8%B9%D9%87%22.+%D9%88%D8%B9%D9%86+%D8%A5%D8%B9%D8%AC%D8%A7%D8%A8+%D8%A7%D9%84%D8%A8%D9%86%D8%A7%D8%AA+%D8%A8%D9%87+%D9%8A%D8%A4%D9%83%D8%AF+%D8%A3%D9%86%D9%87+%D9%84%D9%8A%D8%B3+%D8%B2%D9%8A%D8%B1+%D9%86%D8%B3%D8%A7%D8%A1+%D9%88%22%D9%84%D8%A7+%D9%8A%D8%B9%D8%B1%D9%81+%D9%84%D9%85%D8%A7%D8%B0%D8%A7%D8%8C+%D9%84%D9%83%D9%86%D9%87+%D8%B4%D9%8A%D8%A1+%D9%85%D9%81%D8%B1%D8%AD%22%D8%8C+%D9%88%D8%AD%D9%8A%D9%86+%D8%B3%D8%A3%D9%84%D9%86%D8%A7%D9%87+%22%D9%87%D9%84+%D8%AA%D8%AA%D8%AD%D8%B1%D8%B4+%D8%A8%D9%83+%D8%A8%D9%86%D8%A7%D8%AA+%D9%81%D9%8A+%D9%81%D9%8A%D8%B3%D8%A8%D9%88%D9%83+%D8%A7%D8%A8%D8%AA%D8%B3%D9%85%D9%8E+%D8%A8%D8%B7%D8%B1%D9%8A%D9%82%D8%A9+%D8%AE%D8%A8%D9%8A%D8%AB%D8%A9+%D9%88%D9%82%D8%A7%D9%84+%22%D9%85%D8%A7+%D9%83%D9%84+%D9%85%D8%A7+%D9%8A%D9%8F%D8%B9%D8%B1%D9%81+%D9%8A%D9%8F%D9%82%D8%A7%D9%84%22.+%D9%88%D8%A3%D9%85%D9%88%D8%B1%D9%8A+%D8%A3%D9%8A%D8%B6%D8%A7%D9%8B+%D9%82%D8%A7%D8%B1%D8%A6+%D9%88%D9%8A%D8%B7%D9%84%D8%B9+%D8%A8%D8%A7%D8%B3%D8%AA%D9%85%D8%B1%D8%A7%D8%B1+%D8%B9%D9%84%D9%89+%D8%A7%D9%84%D9%83%D8%AA%D8%A8+%22%D8%A2%D8%AE%D8%B1+%D9%83%D8%AA%D8%A7%D8%A8+%D9%82%D8%B1%D8%A3%D8%AA%D9%87+%D9%83%D8%A7%D9%86+%28%D8%B4%D8%AE%D8%B5%D9%8A%D8%A9+%D8%A7%D9%84%D9%81%D8%B1%D8%AF+%D8%A7%D9%84%D8%B9%D8%B1%D8%A7%D9%82%D9%8A%29+%D9%84%D8%B9%D9%84%D9%8A+%D8%A7%D9%84%D9%88%D8%B1%D8%AF%D9%8A%D8%8C+%D9%88%D9%82%D8%A8%D9%84%D9%87+%28%D8%A7%D9%84%D8%AD%D9%81%D9%8A%D8%AF%D8%A9+%D8%A7%D9%84%D8%A3%D9%85%D8%B1%D9%8A%D9%83%D9%8A%D8%A9%29+%D9%84%D8%A5%D9%86%D8%B9%D8%A7%D9%85+%D9%83%D8%AC%D9%87+%D8%AC%D9%8A%D8%8C+%D9%88%D9%83%D8%AA%D8%A7%D8%A8+%D9%84%D9%86%D9%88%D8%A7%D9%84+%D8%A7%D9%84%D8%B3%D8%B9%D8%AF%D8%A7%D9%88%D9%8A%22.+%D9%88%D9%8A%D8%B4%D9%8A%D8%B1+%D8%A3%D9%85%D9%88%D8%B1%D9%8A+%22%D8%A3%D8%B9%D9%85%D9%84+%D8%A8%D8%A7%D8%B3%D8%AA%D9%85%D8%B1%D8%A7%D8%B1+%D8%B9%D9%84%D9%89+%D8%B4%D8%AE%D8%B5%D9%8A%D8%A7%D8%AA+%D8%AC%D8%AF%D9%8A%D8%AF%D8%A9%D8%8C+%D9%88%D8%A7%D9%84%D8%A8%D8%AD%D8%AB+%D8%A8%D9%87%D8%B0%D9%87+%D8%A7%D9%84%D8%B7%D8%B1%D9%8A%D9%82%D8%A9+%D9%87%D9%88+%D9%85%D8%A7+%D9%8A%D8%AD%D9%81%D8%B2%D9%86%D9%8A+%D8%B9%D9%84%D9%89+%D8%A3%D9%86+%D8%A3%D8%AA%D9%82%D8%AF%D9%85+%D8%A8%D9%85%D8%B3%D8%AA%D9%88%D8%A7%D9%8A+%D8%A7%D9%84%D8%AA%D9%85%D8%AB%D9%8A%D9%84%D9%8A+%D9%88%D8%A7%D9%84%D8%A3%D8%B4%D9%8A%D8%A7%D8%A1+%D8%A7%D9%84%D8%AA%D9%8A+%D8%A3%D9%82%D8%AF%D9%85%D9%87%D8%A7%22.+%D8%A3%D9%88%D8%B3+%D9%81%D8%A7%D8%B6%D9%84%3A+%D8%AC%D9%85%D9%87%D9%88%D8%B1%D9%8A+%D8%A7%D9%84%D9%86%D8%B3%D8%A7%D8%A6%D9%8A+%D8%A7%D8%B2%D8%AF%D8%A7%D8%AF+%D8%A8%D8%B9%D8%AF+%22%D9%83%D8%A7%D9%85%D9%84+%D9%85%D9%81%D9%8A%D8%AF%22+%D9%8A%D8%A4%D9%83%D8%AF+%D8%A3%D9%88%D8%B3+%D9%81%D8%A7%D8%B6%D9%84%D8%8C+%D9%88%D9%87%D9%88+%D8%A3%D9%8A%D8%B6%D8%A7%D9%8B+%D9%85%D9%85%D8%AB%D9%84+%D9%88%D9%85%D8%B9%D8%AF+%D8%A8%D8%B1%D8%A7%D9%85%D8%AC+%D9%88%D9%82%D8%AF%D9%91%D9%85+%D8%B9%D8%AF%D8%A9+%D8%A3%D8%B9%D9%85%D8%A7%D9%84+%D8%B3%D8%A7%D8%A8%D9%82%D8%A7%D9%8B+%D8%A5%D9%86+%D8%B4%D8%AE%D8%B5%D9%8A%D8%A9+%22%D8%A7%D9%84%D8%B6%D8%A7%D8%A8%D8%B7+%D8%A7%D9%84%D9%81%D8%A7%D8%B3%D8%AF%22+%D8%A3%D9%88+%22%D9%83%D8%A7%D9%85%D9%84+%D9%85%D9%81%D9%8A%D8%AF%22+%D9%83%D8%A7%D9%86%D8%AA+%22%D8%B4%D8%AE%D8%B5%D9%8A%D8%A9+%D8%AE%D8%B7%D8%B1%D8%A9%D8%8C+%D9%88%D9%84%D8%A7+%D8%A3%D8%AE%D9%81%D9%8A%D9%83%D8%8C+%D9%83%D9%86%D8%AA%D9%8F+%D9%85%D8%AA%D9%88%D8%AC%D8%B3%D8%A7%D9%8B+%D9%85%D9%86+%D8%B1%D8%AF%D9%88%D8%AF+%D8%A7%D9%84%D8%A3%D9%81%D8%B9%D8%A7%D9%84%D8%8C+%D9%84%D9%83%D9%86+%D9%85%D9%86+%D8%A7%D9%84%D9%85%D9%81%D8%B1%D8%AD+%D8%A3%D9%86+%D8%A3%D8%AC%D8%AF+%D8%A3%D8%B9%D8%AF%D8%A7%D8%AF%D8%A7%D9%8B+%D9%83%D8%A8%D9%8A%D8%B1%D8%A7%D9%8B+%D9%85%D9%86+%D9%85%D9%86%D8%AA%D8%B3%D8%A8%D9%8A+%D8%A7%D9%84%D8%B3%D9%84%D9%83+%D8%A7%D9%84%D8%B9%D8%B3%D9%83%D8%B1%D9%8A+%D9%8A%D8%AA%D8%A7%D8%A8%D8%B9%D9%88%D9%86%D9%87+%D9%88%D9%8A%D8%B9%D8%AC%D8%A8%D9%88%D9%86+%D8%A8%D9%87%22.+%D9%88%D9%8A%D8%B9%D9%84%D9%91%D9%84%D9%8F+%D9%81%D8%A7%D8%B6%D9%84+%D8%A7%D8%AE%D8%AA%D9%8A%D8%A7%D8%B1+%D8%B4%D8%AE%D8%B5%D9%8A%D8%A9+%28%D9%83%D8%A7%D9%85%D9%84+%D9%85%D9%81%D9%8A%D8%AF%29+%D8%A8%D8%A3%D9%86+%22%D8%A7%D9%84%D8%AF%D8%B1%D8%A7%D9%85%D8%A7+%D8%A7%D9%84%D8%B9%D8%B1%D8%A7%D9%82%D9%8A%D8%A9+%D9%82%D8%AF%D9%85%D8%AA+%D8%B4%D8%AE%D8%B5%D9%8A%D8%A9+%D8%A7%D9%84%D8%B6%D8%A7%D8%A8%D8%B7+%D8%A7%D9%84%D8%B9%D8%B1%D8%A7%D9%82%D9%8A+%D8%A8%D8%A3%D9%86%D9%87+%D9%85%D9%84%D8%AA%D8%B2%D9%85%D8%8C+%D9%88%D9%8A%D8%AA%D8%AD%D8%AF%D8%AB+%D8%A8%D9%84%D9%87%D8%AC%D8%A9+%D8%A3%D9%82%D8%B1%D8%A8+%D9%84%D9%84%D9%81%D8%B5%D8%AD%D9%89%D8%8C+%D8%AB%D9%85+%D9%84%D8%A7+%D9%8A%D8%B1%D8%AA%D8%B4%D9%8A%D8%8C+%D9%86%D8%B8%D8%A7%D9%85%D9%8A%D9%91+%D8%AC%D8%AF%D8%A7%D8%8C+%D9%88%D9%87%D8%B0%D8%A7+%D8%A8%D8%A7%D9%84%D8%AA%D8%A3%D9%83%D9%8A%D8%AF+%D8%B4%D9%8A%D8%A1+%D8%BA%D9%8A%D8%B1+%D8%B5%D8%AD%D9%8A%D8%AD+%D8%B1%D8%BA%D9%85+%D9%88%D8%AC%D9%88%D8%AF+%D8%B6%D8%A8%D8%A7%D8%B7+%D8%AC%D9%8A%D8%AF%D9%8A%D9%86+%D9%88%D9%85%D9%84%D8%AA%D8%B2%D9%85%D9%8A%D9%86%D8%8C+%D9%81%D9%82%D8%AF%D9%85%D8%AA%D9%8F+%D9%87%D8%B0%D9%87+%D8%A7%D9%84%D8%B4%D8%AE%D8%B5%D9%8A%D8%A9+%D9%85%D9%85%D9%91%D8%A7+%D8%A3%D8%B1%D8%A7%D9%87+%D9%81%D9%8A+%D8%A7%D9%84%D9%85%D8%AC%D8%AA%D9%85%D8%B9+%D8%A7%D9%84%D8%B9%D8%B1%D8%A7%D9%82%D9%8A%22.+%D9%88%D9%84%D9%81%D8%AA+%D8%A3%D9%88%D8%B3%D8%8C+%D9%88%D9%87%D9%88+%D8%B4%D9%82%D9%8A%D9%82+%D8%B9%D9%84%D9%8A+%D9%81%D8%A7%D8%B6%D9%84+%D8%A5%D9%86%D9%86%D9%8A+%22%D8%A3%D8%AA%D9%81%D9%87%D9%85+%D8%AA%D9%85%D8%A7%D9%85%D8%A7%D9%8B+%D8%AD%D8%B3%D8%A7%D8%B3%D9%8A%D8%A9+%D9%83%D9%88%D9%86%D9%8A+%D8%A3%D8%AE%D8%A7%D9%8B+%D9%84%D8%B9%D9%84%D9%8A%D9%91%D8%8C+%D9%88%D8%AF%D8%A7%D8%A6%D9%85%D8%A7%D9%8B+%D9%85%D8%A7+%D8%AA%D8%B1%D8%AF%D9%86%D8%A7+%D8%A8%D8%B9%D8%B6+%D8%A7%D9%84%D8%A7%D9%86%D8%AA%D9%82%D8%A7%D8%AF%D8%A7%D8%AA%D8%8C+%D9%84%D9%83%D9%86+%D8%B9%D9%84%D9%8A%D9%91+%D9%84%D8%A7+%D9%8A%D8%A4%D9%85%D9%86+%D8%A8%D8%A7%D9%84%D9%85%D8%AD%D8%A7%D8%A8%D8%A7%D8%A9%D8%8C+%D9%88%D8%A3%D9%86%D8%A7+%D8%A3%D9%8A%D8%B6%D8%A7%D9%8B+%D8%A3%D8%AA%D9%81%D9%87%D9%85+%D9%88%D8%B6%D8%B9%D9%87%22.+%D9%88%D9%8A%D9%86%D9%81%D9%8A+%D8%A3%D9%88%D8%B3+%D8%A3%D9%8A+%D9%85%D8%AD%D8%A7%D9%88%D9%84%D8%A9+%D9%84%D9%84%D8%AE%D8%B1%D9%88%D8%AC+%D9%85%D9%86+%D9%85%D8%AC%D9%85%D9%88%D8%B9%D8%A9+%28%D9%88%D9%84%D8%A7%D9%8A%D8%A9+%D8%A8%D8%B7%D9%8A%D8%AE%29+%D8%A3%D9%88+%D9%87%D8%B0%D8%A7+%D8%A7%D9%84%D9%81%D8%B1%D9%8A%D9%82%D8%8C+%D8%B1%D8%BA%D9%85+%D8%A3%D9%86+%22%D9%83%D8%AB%D9%8A%D8%B1%D9%8A%D9%86+%D9%82%D8%A7%D9%84%D9%88%D8%A7+%D9%84%D9%8A+%D8%A8%D8%A3%D9%86+%D8%B4%D8%AE%D8%B5%D9%8A%D8%A9+%D9%83%D8%A7%D9%85%D9%84+%D9%85%D9%81%D9%8A%D8%AF+%D9%85%D8%AB%D9%84%D8%A7+%D8%AA%D8%B5%D9%84%D8%AD+%D9%84%D8%A3%D9%86+%D8%AA%D9%83%D9%88%D9%86+%D9%85%D8%B3%D9%84%D8%B3%D9%84%D8%A7%D9%8B+%D9%85%D8%B3%D8%AA%D9%82%D9%84%D8%A7%D8%8C+%D9%84%D9%83%D9%86+%D8%AA%D9%88%D8%A7%D8%AC%D8%AF%D9%8A+%D9%85%D8%B9+%D8%A7%D9%84%D8%B4%D8%A8%D8%A7%D8%A8+%D9%87%D9%88+%D8%A7%D9%84%D8%A3%D9%87%D9%85%22.+%D9%88%D9%8A%D9%84%D9%81%D8%AA+%D8%A3%D9%88%D8%B3+%22%D9%82%D8%A8%D9%84+%D9%83%D8%A7%D9%85%D9%84+%D9%85%D9%81%D9%8A%D8%AF%D8%8C+%D9%83%D8%A7%D9%86+%D8%AC%D9%85%D9%87%D9%88%D8%B1%D9%8A+%D9%85%D9%86+%D8%A7%D9%84%D9%86%D8%B3%D8%A7%D8%A1+%D9%82%D9%84%D9%8A%D9%84%D8%A7+%D8%AC%D8%AF%D8%A7%D8%8C+%D8%A7%D9%84%D8%A2%D9%86+%D8%A7%D9%84%D8%A3%D9%85%D8%B1+%D9%85%D8%AE%D8%AA%D9%84%D9%81%22%D8%8C+%D8%AF%D9%88%D9%86+%D8%A5%D9%8A%D8%B6%D8%A7%D8%AD+%D9%85%D8%B2%D9%8A%D8%AF+%D9%85%D9%86+%D8%A7%D9%84%D8%AA%D9%81%D8%A7%D8%B5%D9%8A%D9%84%21+%D8%A3%D8%AB%D9%8A%D8%B1+%D9%83%D8%B4%D9%83%D9%88%D9%84%3A+%D8%AA%D9%88%D8%AC%D9%87+%D9%84%D9%8A+%D8%A8%D8%B9%D8%B6+%D8%A7%D9%84%D8%A7%D9%86%D8%AA%D9%82%D8%A7%D8%AF%D8%A7%D8%AA+%D9%88%D9%8A%D9%82%D9%88%D9%84%D9%88%D9%86+%22%D8%A5%D9%86%D9%83+%D8%AA%D8%B5%D8%B1%D8%AE%22+%D8%A3%D9%85%D8%A7+%D8%A3%D8%AB%D9%8A%D8%B1+%D9%83%D8%B4%D9%83%D9%88%D9%84%D8%8C+%D9%81%D9%87%D9%88+%D9%85%D9%85%D9%91%D9%86+%D9%8A%D9%82%D8%AF%D9%85+%D8%B4%D8%AE%D8%B5%D9%8A%D8%A7%D8%AA+%D9%85%D9%85%D9%8A%D8%B2%D8%A9%D8%8C+%D8%B4%D8%AE%D8%B5%D9%8A%D8%A9+%22%D8%A7%D9%84%D8%B4%D8%A7%D9%8A%D8%A8%22+%D9%81%D8%B6%D9%84%D8%A7%D9%8B+%D8%B9%D9%86+%22%D8%A7%D9%84%D8%B4%D8%A7%D8%A8+%D8%A7%D9%84%D8%BA%D8%A7%D8%B6%D8%A8%22+%D8%A7%D9%84%D8%B0%D9%8A+%D9%8A%D9%8F%D9%86%D8%A7%D8%B4%D8%AF+%D9%88%D9%8A%D8%B9%D8%AA%D8%B1%D8%B6+%D8%A8%D8%B4%D9%83%D9%84%D9%8D+%D9%85%D8%B3%D8%AA%D9%85%D8%B1.+%D9%8A%D8%AA%D8%AD%D8%AF%D8%AB+%D9%83%D8%B4%D9%83%D9%88%D9%84+%D8%A8%D9%82%D9%88%D9%84%D9%87+%22%D9%83%D8%A7%D8%B1%D9%83%D8%AA%D8%B1+%D8%A7%D9%84%D9%85%D9%86%D8%A7%D8%B4%D8%AF%D8%A9+%D9%8A%D8%AA%D9%85+%D8%B7%D8%B1%D8%AD+%D8%A7%D9%84%D9%85%D8%B4%D8%A7%D9%83%D9%84+%D8%A7%D9%84%D8%A3%D8%B3%D8%B1%D9%8A%D8%A9+%D8%A7%D9%84%D8%A8%D8%B3%D9%8A%D8%B7%D8%A9+%D9%85%D9%86+%D8%AE%D9%84%D8%A7%D9%84%D9%87%D8%8C+%D9%88%D9%87%D9%8A+%D8%A7%D9%84%D8%AA%D9%8A+%D8%AA%D8%AD%D8%AF%D8%AB+%D9%81%D9%8A+%D9%83%D9%84+%D8%A8%D9%8A%D8%AA+%D8%B9%D8%B1%D8%A7%D9%82%D9%8A%D8%8C+%D9%88%D8%A7%D9%84%D9%83%D9%88%D9%85%D9%8A%D8%AF%D9%8A%D8%A7+%D8%AA%D9%83%D9%85%D9%86+%D8%A8%D8%A3%D9%86%D9%83+%D8%AA%D8%B1%D9%89+%D8%B4%D8%AE%D8%B5%D8%A7+%D8%BA%D8%A7%D8%B6%D8%A8%D8%A7%D9%8B+%D9%88%D8%AA%D8%B6%D8%AD%D9%83%D8%8C+%D8%A3%D8%B1%D8%A7%D9%87+%D8%B4%D9%8A%D8%A6%D8%A7%D9%8B+%D8%AC%D9%8A%D8%AF%D8%A7%22%D8%8C+%D9%88%D9%8A%D9%83%D9%85%D9%84+%22%D8%AA%D8%AA%D9%85+%D8%AA%D9%88%D8%AC%D9%8A%D9%87+%D8%A7%D9%86%D8%AA%D9%82%D8%A7%D8%AF%D8%A7%D8%AA+%D9%84%D9%8A%D8%8C+%D9%85%D9%86%D9%87%D8%A7+%D8%A3%D9%86%D9%86%D9%8A+%D8%A3%D9%83%D8%B1%D8%B1+%D9%86%D9%81%D8%B3%D9%8A%D8%8C+%D9%88%D8%A3%D9%86%D9%86%D9%8A+%D9%84%D8%B3%D8%AA%D9%8F+%D9%85%D9%85%D8%AB%D9%84%D8%A7+%D9%88%D8%A3%D8%B5%D8%B1%D8%AE+%D9%81%D8%AD%D8%B3%D8%A8%D8%8C+%D9%85%D8%B9+%D8%A7%D9%84%D8%B9%D9%84%D9%85+%D8%A3%D9%86+%D8%A7%D9%84%D8%AA%D9%81%D9%83%D9%8A%D8%B1+%D8%A8%D9%87%D8%B0%D9%87+%D8%A7%D9%84%D8%B4%D8%AE%D8%B5%D9%8A%D8%A9+%D9%87%D9%88+%D9%84%D9%8A%D8%B3+%D8%B4%D9%8A%D8%A6%D8%A7%D9%8B+%D8%B3%D9%87%D9%84%D8%A7+%D8%A8%D9%83%D9%84+%D8%AA%D8%A3%D9%83%D9%8A%D8%AF%D8%8C+%D9%88%D9%87%D8%B0%D9%87+%D8%A7%D9%84%D8%A7%D9%86%D8%AA%D9%82%D8%A7%D8%AF%D8%A7%D8%AA+%D9%84%D8%A7+%D8%AA%D8%B4%D9%83%D9%84+%D8%B4%D9%8A%D8%A6%D8%A7%D9%8B+%D9%83%D8%A8%D9%8A%D8%B1%D8%A7%D9%8B+%D8%AC%D8%AF%D8%A7%D9%8B+%D8%B1%D8%BA%D9%85+%D8%A3%D9%86%D9%86%D9%8A+%D9%85%D9%87%D8%AA%D9%85+%D8%A8%D8%A7%D9%84%D8%A3%D8%AE%D8%B0+%D8%A8%D9%87%D8%A7%22.+%D9%8A%D8%B1%D9%89+%D9%83%D8%B4%D9%83%D9%88%D9%84+%D8%A3%D9%86+%22%D9%88%D9%84%D8%A7%D9%8A%D8%A9+%D8%A8%D8%B7%D9%8A%D8%AE+%D9%87%D9%8A+%D8%AA%D9%88%D8%BA%D9%84+%D8%AF%D8%A7%D8%AE%D9%84+%D9%83%D9%84+%D8%A8%D9%8A%D8%AA+%D8%B9%D8%B1%D8%A7%D9%82%D9%8A%D8%8C+%D9%85%D8%A7+%D9%86%D9%82%D8%AF%D9%85%D9%87+%D9%87%D9%88+%D8%AD%D9%88%D8%A7%D8%B1%D8%A7%D8%AA+%D8%A8%D9%84%D8%A7+%D8%AA%D8%B1%D9%87%D9%84%D8%8C+%D9%88%D8%A8%D9%84%D8%A7+%D8%A5%D8%B3%D9%81%D8%A7%D9%81%D8%8C+%D8%A7%D8%B9%D8%AA%D9%85%D8%AF%D9%86%D8%A7+%D8%B9%D9%84%D9%89+%D8%A7%D9%84%D8%B5%D8%AF%D9%82+%D9%85%D8%B9+%D8%A7%D9%84%D9%86%D8%A7%D8%B3%D8%8C+%D8%A7%D9%84%D8%A7%D9%84%D8%AA%D8%B2%D8%A7%D9%85+%D8%A8%D8%A7%D9%84%D9%85%D9%88%D8%A7%D8%B9%D9%8A%D8%AF%D8%8C+%D9%88%D8%A7%D9%84%D9%83%D9%88%D9%85%D9%8A%D8%AF%D9%8A%D8%A7+%D8%A7%D9%84%D8%AD%D9%8A%D8%A7%D8%AA%D9%8A%D8%A9+%D8%A7%D9%84%D8%AA%D9%8A+%D9%8A%D8%B9%D9%8A%D8%B4%D9%87%D8%A7+%D8%A7%D9%84%D9%85%D8%AC%D8%AA%D9%85%D8%B9%D8%8C+%D9%83%D9%85%D8%A7+%D8%A3%D9%86%D9%86%D8%A7+%D9%86%D8%AF%D8%B1%D8%B3%D9%8F+%D9%86%D9%81%D8%B3%D9%8A%D8%A9+%D8%A7%D9%84%D9%85%D8%AA%D9%84%D9%82%D9%8A%D8%8C+%D9%88%D9%85%D8%A7+%D9%8A%D9%85%D9%83%D9%86+%D8%A3%D9%86+%D9%8A%D8%A4%D8%AB%D8%B1+%D8%A8%D9%86%D9%81%D8%B3%D9%8A%D8%A9+%D8%A7%D9%84%D9%86%D8%A7%D8%B3%D8%8C+%D8%A3%D9%85%D8%A7+%D9%87%D8%AF%D9%81%D9%86%D8%A7+%D8%A7%D9%84%D8%A3%D9%83%D8%A8%D8%B1+%D9%87%D9%88%3A+%D8%B5%D9%86%D8%B9+%D9%87%D9%88%D9%8A%D8%A9+%D9%84%D9%84%D9%83%D9%88%D9%85%D9%8A%D8%AF%D9%8A%D8%A7+%D8%A7%D9%84%D8%B9%D8%B1%D8%A7%D9%82%D9%8A%D8%A9%D8%8C+%D9%84%D8%A3%D9%86+%D8%A7%D9%84%D9%83%D9%88%D9%85%D9%8A%D8%AF%D9%8A%D8%A7+%D8%A7%D9%84%D8%B9%D8%B1%D8%A7%D9%82%D9%8A%D8%A9+%D8%A8%D9%84%D8%A7+%D9%87%D9%88%D9%8A%D8%A9%22.+%D8%BA%D8%B3%D8%A7%D9%86+%D8%A7%D8%B3%D9%85%D8%A7%D8%B9%D9%8A%D9%84%3A+%D8%AA%D8%B1%D9%83%D8%AA%D9%8F+%D8%A7%D9%84%D8%B4%D8%B9%D8%B1+%D9%85%D9%86+%D8%A3%D8%AC%D9%84+%D8%A7%D9%84%D9%85%D8%B3%D8%B1%D8%AD+%D8%AF%D8%AE%D9%84+%D8%BA%D8%B3%D8%A7%D9%86+%D8%A7%D8%B3%D9%85%D8%A7%D8%B9%D9%8A%D9%84+%D8%A7%D9%84%D9%88%D8%B3%D8%B7+%D8%A7%D9%84%D9%81%D9%86%D9%8A+%D8%A7%D9%84%D8%B9%D8%B1%D8%A7%D9%82%D9%8A+%D8%B9%D8%A7%D9%85+2000%D8%8C+%D9%8A%D9%82%D9%88%D9%84+%22%D9%83%D9%86%D8%AA%D9%8F+%D8%A3%D8%A8%D9%8A%D8%B9+%D8%A7%D9%84%D8%A8%D9%8A%D8%A8%D8%B3%D9%8A%D8%8C+%D9%88%D9%82%D8%A7%D9%84%D8%AA+%D9%84%D9%8A+%D8%AC%D8%A7%D8%B1%D8%AA%D9%86%D8%A7%D8%8C+%D9%88%D9%87%D9%8A+%D9%85%D8%AE%D8%B1%D8%AC%D8%A9%D8%8C+%D8%A5%D9%86+%D9%87%D9%86%D8%A7%D9%83+%D9%85%D8%B3%D9%84%D8%B3%D9%84%D8%A7+%D9%8A%D8%AD%D8%AA%D8%A7%D8%AC%D9%88%D9%86+%D9%84%D8%A3%D8%AF%D9%88%D8%A7%D8%B1+%D9%83%D9%88%D9%85%D8%A8%D8%A7%D8%B1%D8%B3%D8%8C+%D9%81%D8%B0%D9%87%D8%A8%D8%AA%D9%8F%22.+%D9%88%D9%8A%D8%B6%D9%8A%D9%81+%22%D9%88%D8%A8%D8%AF%D9%84%D8%A7+%D8%B9%D9%86+%D8%A7%D9%84%D9%83%D9%88%D9%85%D8%A8%D8%A7%D8%B1%D8%B3%D8%8C+%D9%85%D9%86%D8%AD%D9%86%D9%8A+%D8%A7%D9%84%D9%85%D8%AE%D8%B1%D8%AC+%D8%AF%D9%88%D8%B1%D8%A7%D9%8B+%D9%86%D8%A7%D8%B7%D9%82%D8%A7%D9%8B+%D8%A8%D8%AB%D9%84%D8%A7%D8%AB+%D8%AC%D9%85%D9%84%D8%8C+%D9%88%D8%A8%D8%B9%D8%AF%D9%87%D8%A7+%D8%B1%D8%A2%D9%86%D9%8A+%D8%A7%D9%84%D9%81%D9%86%D8%A7%D9%86+%D8%A7%D9%84%D8%B1%D8%A7%D8%AD%D9%84+%D8%B9%D8%A8%D8%AF+%D8%A7%D9%84%D8%AE%D8%A7%D9%84%D9%82+%D8%A7%D9%84%D9%85%D8%AE%D8%AA%D8%A7%D8%B1+%D9%88%D9%82%D8%A7%D9%84%3A+%D9%8A%D8%AC%D8%A8+%D8%A3%D9%86+%D8%AA%D9%83%D9%88%D9%86+%D8%B7%D8%A7%D9%84%D8%A8%D8%A7%D9%8B+%D9%81%D9%8A+%D9%85%D8%B9%D9%87%D8%AF+%D8%A7%D9%84%D9%81%D9%86%D9%88%D9%86+%D8%A7%D9%84%D8%AC%D9%85%D9%8A%D9%84%D8%A9%D8%8C+%D9%8A%D8%AC%D8%A8+%D8%A3%D9%86+%D8%AA%D9%83%D9%88%D9%86+%D9%85%D9%85%D8%AB%D9%84%D8%A7%D8%8C+%D9%88%D8%A8%D8%A7%D9%84%D9%85%D8%AD%D8%B5%D9%84%D8%A9+%D9%87%D8%B0%D8%A7+%D8%A7%D9%84%D8%A3%D9%85%D8%B1+%D8%A3%D9%81%D8%B6%D9%84+%D9%85%D9%86+%D8%A7%D9%84%D8%A8%D9%8A%D8%A8%D8%B3%D9%8A+%D8%A8%D8%A7%D9%84%D8%AA%D8%A3%D9%83%D9%8A%D8%AF%22.+%D9%88%D9%8A%D9%83%D9%85%D9%84+%D8%BA%D8%B3%D8%A7%D9%86+%22%D8%AF%D8%B1%D8%B3%D8%AA%D9%8F+%D9%81%D9%8A+%D9%85%D8%B9%D9%87%D8%AF+%D8%A7%D9%84%D9%81%D9%86%D9%88%D9%86+%D8%A7%D9%84%D8%AC%D9%85%D9%8A%D9%84%D8%A9%D8%8C+%D8%AB%D9%85+%D8%A8%D8%AF%D8%A3+%D9%84%D8%AF%D9%8A+%D9%87%D8%A7%D8%AC%D8%B3+%D8%A7%D9%84%D8%B4%D8%B9%D8%B1+%D8%A7%D9%84%D8%B4%D8%B9%D8%A8%D9%8A%D8%8C+%D8%A8%D8%AD%D9%83%D9%85+%D8%B5%D8%AF%D8%A7%D9%82%D8%AA%D9%8A+%D8%A8%D8%A7%D9%84%D8%B4%D8%B9%D8%B1%D8%A7%D8%A1+%D8%A7%D9%84%D8%B4%D8%B9%D8%A8%D9%8A%D9%8A%D9%86%D8%8C+%D8%AD%D8%AA%D9%89+%D8%A8%D8%AF%D8%A3%D8%AA%D9%8F+%D8%A8%D9%83%D8%AA%D8%A7%D8%A8%D8%A9+%D8%A7%D9%84%D8%B4%D8%B9%D8%B1+%D8%A7%D9%84%D8%B4%D8%B9%D8%A8%D9%8A+%D9%88%D8%A3%D9%86%D8%A7+%D8%B7%D8%A7%D9%84%D8%A8%D9%8C+%D9%81%D9%8A+%D9%82%D8%B3%D9%85+%D8%A7%D9%84%D9%85%D8%B3%D8%B1%D8%AD%D8%8C+%D9%88%D9%88%D8%B5%D9%84%D8%AA%D9%8F+%D9%85%D8%B1%D8%AD%D9%84%D8%A9+%D8%A3%D9%86%D9%86%D9%8A+%D9%84%D9%85+%D8%A3%D8%B9%D8%B1%D9%81+%D8%A8%D9%86%D9%81%D8%B3%D9%8A+%D9%85%D8%A7%D8%B0%D8%A7+%D8%A8%D8%A7%D9%84%D8%B6%D8%A8%D8%B7%D8%8C+%D8%B4%D8%A7%D8%B9%D8%B1%D9%8C+%D8%A3%D9%85+%D9%85%D8%B3%D8%B1%D8%AD%D9%8A%D8%9F%D8%8C+%D8%AB%D9%85+%D9%82%D9%84%D8%AA+%D9%84%D8%A7+%D8%A8%D8%AF+%D9%85%D9%86+%D8%A7%D9%84%D8%AA%D8%B1%D9%83%D9%8A%D8%B2%D8%8C+%D8%A7%D9%85%D8%A7+%D8%B4%D8%A7%D8%B9%D8%B1+%D8%A3%D9%88+%D9%85%D8%B3%D8%B1%D8%AD%D9%8A%D8%8C+%D9%81%D8%A7%D8%AE%D8%AA%D8%B1%D8%AA%D9%8F+%D8%A7%D9%84%D9%85%D8%B3%D8%B1%D8%AD+%D9%88%D8%A7%D9%84%D8%AA%D9%85%D8%AB%D9%8A%D9%84%22.+%D9%85%D8%B9+%D9%87%D8%B0%D8%A7%D8%8C+%D9%8A%D8%B3%D8%AA%D8%B0%D9%83%D8%B1+%D8%BA%D8%B3%D8%A7%D9%86+%D8%A7%D8%B3%D9%85%D8%A7%D8%B9%D9%8A%D9%84+%D9%86%D9%85%D9%88%D8%B0%D8%AC%D8%A7%D9%8B+%D9%85%D9%86+%D9%83%D8%AA%D8%A7%D8%A8%D8%A7%D8%AA%D9%87+%D9%81%D9%8A+%D8%AA%D9%84%D9%83+%D8%A7%D9%84%D9%81%D8%AA%D8%B1%D8%A9%D8%8C+%D9%81%D9%8A%D9%82%D9%88%D9%84%3A+%22%D8%B4%D8%AC%D8%A7%D9%86%D9%8A+%D9%88%D8%A3%D9%85%D9%91%D9%86%D8%AA+%D9%88%D8%AA%D8%A3%D9%85%D9%84%D8%AA+%D9%83%D9%84+%D8%AE%D9%8A%D8%B1+%D9%88%D8%B4%D8%A8%D8%B3%D8%A7%D8%B9+%D8%A7%D9%84%D9%81%D8%B1%D8%AD+%D8%A8%D9%8A%D9%91%D9%86+%D8%B9%D9%84%D9%89+%D8%B9%D9%8A%D9%88%D9%86%D9%8A+%D8%B3%D9%84%D9%91%D9%85%D8%AA%D9%83+%D9%85%D8%B4%D8%A7%D8%B9%D8%B1+%D9%85%D8%A7%D9%84+%D8%B9%D8%B4%D8%B1+%D8%B3%D9%86%D9%8A%D9%86+%D9%88%D9%84%D8%A7+%D8%AD%D8%B3%D9%91%D8%A8%D8%AA+%D9%84%D8%AD%D8%B8%D8%A9+%D9%8A%D8%AE%D9%8A%D8%A8%D9%86+%D8%B8%D9%86%D9%88%D9%86%D9%8A+%D9%88%D9%85%D8%A7+%D8%A7%D9%84%D9%88%D9%85%D9%83+%D8%B9%D9%81%D8%AA%D9%86%D9%8A%D8%8C+%D9%85%D8%B9%D8%A7%D8%B4%D8%B1%D9%83+%D9%8A%D9%88%D9%85%D9%8A%D9%86+%D8%A2%D9%86%D9%87+%D8%A7%D9%84%D8%B9%D8%A7%D8%B4%D8%B1%D8%AA%D9%87%D9%85+%D8%B9%D9%85%D8%B1+%D8%B9%D8%A7%D9%81%D9%88%D9%86%D9%8A%22.+%D9%88%D9%8A%D9%84%D8%AA%D8%AD%D9%82+%D8%A7%D8%B3%D9%85%D8%A7%D8%B9%D9%8A%D9%84+%D8%A8%D9%81%D8%B1%D9%8A%D9%82+%D8%B9%D9%84%D9%8A+%D9%81%D8%A7%D8%B6%D9%84+%D8%A8%D8%A7%D9%84%D8%AC%D8%B2%D8%A1+%D8%A7%D9%84%D8%AB%D8%A7%D9%86%D9%8A+%D9%85%D9%86+%28%D8%B9%D9%84%D8%AC+%D9%85%D9%8A%29%D8%8C+%D9%88%D9%8A%D8%B6%D9%8A%D9%81+%22%D8%AD%D9%8A%D9%86%D9%87%D8%A7+%D8%A8%D8%AF%D8%A3+%D8%A7%D9%84%D9%86%D8%A7%D8%B3+%D9%8A%D8%AA%D8%A7%D8%A8%D8%B9%D9%88%D9%86%D9%86%D8%A7%D8%8C+%D9%88%D9%87%D8%B0%D8%A7+%D8%B4%D9%8A%D8%A1+%D9%85%D9%81%D8%B1%D8%AD+%D8%A8%D8%A7%D9%84%D8%AA%D8%A3%D9%83%D9%8A%D8%AF%22.+%D9%88%D8%B9%D9%86+%28%D9%88%D9%84%D8%A7%D9%8A%D8%A9+%D8%A8%D8%B7%D9%8A%D8%AE%29+%D8%A5%D9%86+%22%D8%A7%D9%84%D8%A8%D8%B1%D9%86%D8%A7%D9%85%D8%AC+%D9%85%D8%B1+%D8%A8%D9%85%D8%B1%D8%A7%D8%AD%D9%84+%D9%85%D8%AA%D8%B9%D8%AF%D8%AF%D8%A9%D8%8C+%D9%88%D9%83%D9%84+%D9%88%D8%A7%D8%AD%D8%AF+%D9%85%D9%86+%D8%A7%D9%84%D9%81%D8%B1%D9%8A%D9%82+%D9%82%D8%AF%D9%85+%D8%AC%D9%87%D8%AF%D8%A7+%D9%85%D9%84%D8%AD%D9%88%D8%B8%D8%A7%22%D8%8C+%D9%88%D9%8A%D9%83%D9%85%D9%84+%22%D9%87%D8%B0%D8%A7+%D9%85%D8%B4%D8%B1%D9%88%D8%B9+%D8%A7%D9%84%D8%B9%D9%85%D8%B1%D8%8C+%D9%88%D9%87%D9%8A+%D9%81%D8%B1%D8%B5%D8%A9+%D9%84%D8%A7+%D8%AA%D8%AA%D9%83%D8%B1%D8%B1+%D9%8A%D9%88%D9%85%D9%8A%D8%A7%D8%8C+%D9%88%D8%A3%D8%B1%D9%8A%D8%AF+%D8%A7%D9%84%D8%AA%D9%85%D8%B3%D9%83+%D8%A8%D9%87%D8%A7+%D8%AC%D8%AF%D8%A7%22.+%D9%8A%D8%A4%D9%83%D8%AF+%D8%BA%D8%B3%D8%A7%D9%86+%D8%A5%D9%86+%22%D9%87%D8%AF%D9%81%D9%86%D8%A7+%D9%87%D9%88+%D8%A7%D9%84%D9%86%D8%AC%D8%A7%D8%AD%D8%8C+%D9%88%D8%A3%D8%B1%D8%AF%D9%86%D8%A7+%D8%A7%D9%84%D8%A7%D8%AE%D8%AA%D9%84%D8%A7%D9%81%D8%8C+%D8%A3%D9%85%D8%A7+%D8%B1%D8%B3%D8%A7%D9%84%D8%AA%D9%86%D8%A7+%D9%81%D9%87%D9%8A+%D9%88%D9%82%D9%88%D9%81%D9%86%D8%A7+%D9%85%D8%B9+%D8%A7%D9%84%D9%85%D9%88%D8%A7%D8%B7%D9%86%D8%8C+%D9%85%D9%86%D9%87+%D9%88%D8%A5%D9%84%D9%8A%D9%87%D8%8C+%D8%A7%D9%86+%D9%86%D8%A4%D8%B3%D8%B3+%D9%84%D8%AE%D8%B7%D8%A7%D8%A8+%D8%B6%D8%AF+%D8%A7%D9%84%D8%B7%D8%A7%D8%A6%D9%81%D9%8A%D8%A9+%D9%88%D8%A7%D9%84%D8%AA%D8%B7%D8%B1%D9%81+%D9%88%D8%AF%D8%A7%D8%B9%D8%B4%D8%8C+%D9%88%D8%B6%D8%AF+%D8%A7%D9%84%D8%B9%D9%86%D8%B5%D8%B1%D9%8A%D8%A9%22.+%D8%A3%D9%85%D9%8A%D8%B1+%D8%A3%D8%A8%D9%88+%D8%A7%D9%84%D9%87%D9%8A%D9%84%3A+%D8%A3%D8%B5%D8%AF%D9%82%D8%A7%D8%A6%D9%8A+%D9%87%D9%85+%D8%A3%D8%B3%D8%A7%D8%AA%D8%B0%D8%AA%D9%8A+%D8%A3%D9%85%D9%8A%D8%B1+%D8%A7%D8%A8%D9%88+%D8%A7%D9%84%D9%87%D9%8A%D9%84%D8%8C+%D8%B7%D8%A7%D9%84%D8%A8%D9%8C+%D9%81%D9%8A+%D8%A3%D9%83%D8%A7%D8%AF%D9%8A%D9%85%D9%8A%D8%A9+%D8%A7%D9%84%D9%81%D9%86%D9%88%D9%86+%D8%A7%D9%84%D8%AC%D9%85%D9%8A%D9%84%D8%A9%D8%8C+%D9%8A%D9%82%D9%88%D9%84+%22%D8%A3%D8%AD%D8%A8+%D8%A7%D9%84%D8%AA%D8%AC%D8%B1%D8%A8%D8%A9%D8%8C+%D8%AF%D8%B1%D8%B3%D8%AA%D9%8F+%D8%A7%D9%84%D8%AA%D9%85%D8%AB%D9%8A%D9%84+%D9%88%D8%AC%D8%B1%D8%A8%D8%AA%D9%8F+%D8%A3%D9%86%D9%88%D8%A7%D8%B9%D9%87%D8%8C+%D9%88%D8%A3%D8%AE%D8%B1%D8%AC%D8%AA%D9%8F+%D8%B9%D8%AF%D8%A9+%D8%A3%D8%B9%D9%85%D8%A7%D9%84%D8%8C+%D9%84%D9%83%D9%86%D9%86%D9%8A+%D8%A3%D8%AD%D8%A8%D8%A8%D8%AA%D9%8F+%D8%AA%D8%AC%D8%B1%D8%A8%D8%A9+%D8%A7%D9%84%D8%AA%D9%84%D9%81%D8%B2%D9%8A%D9%88%D9%86%D8%8C+%D9%88%D9%87%D8%B0%D9%87+%D8%A7%D9%84%D8%AA%D8%AC%D8%B1%D8%A8%D8%A9+%D8%AF%D9%81%D8%B9%D9%86%D9%8A+%D9%81%D8%B6%D9%88%D9%84%D9%8A+%D8%A7%D9%84%D9%8A%D9%87%D8%A7%D8%8C+%D9%88%D8%AD%D8%AA%D9%89+%D8%A7%D9%84%D8%A2%D9%86+%D9%84%D8%B3%D8%AA%D9%8F+%D9%85%D8%A8%D8%AF%D8%B9%D8%A7%D9%8B+%D9%81%D9%8A+%D8%A7%D9%84%D8%A8%D8%B1%D9%86%D8%A7%D9%85%D8%AC+%D9%83%D8%A3%D8%AF%D8%A7%D8%A6%D9%8A+%D9%81%D9%8A+%D8%A7%D9%84%D9%85%D8%B3%D8%B1%D8%AD%22.+%D9%88%D9%8A%D8%B6%D9%8A%D9%81+%22%D8%A3%D9%86%D8%A7+%D8%A3%D9%85%D8%A7%D8%B1%D8%B3+%D8%A7%D9%84%D8%AA%D9%85%D8%AB%D9%8A%D9%84+%D8%A7%D9%84%D9%85%D8%B3%D8%B1%D8%AD%D9%8A+%D9%85%D9%86%D8%B0+9+%D8%B3%D9%86%D9%88%D8%A7%D8%AA%D8%8C+%D9%88%D8%A3%D9%86%D8%A7+%D8%A3%D8%AA%D8%B9%D9%84%D9%85+%D9%85%D9%86+%D8%A7%D9%84%D8%B4%D8%A8%D8%A7%D8%A8%D8%8C+%D9%88%D9%87%D8%B0%D9%87+%D8%A3%D8%B9%D8%AA%D8%A8%D8%B1%D9%87%D8%A7+%D8%AA%D8%AC%D8%B1%D8%A8%D8%A9+%D9%85%D9%87%D9%85%D8%A9+%D8%AA%D8%B9%D9%84%D9%85%D9%86%D9%8A+%D8%A7%D9%84%D9%83%D8%AB%D9%8A%D8%B1%22.+%D9%88%D9%8A%D9%83%D9%85%D9%84+%D8%A3%D9%85%D9%8A%D8%B1%D8%8C+%D8%A2%D8%AE%D8%B1+%D8%A7%D9%84%D9%85%D9%84%D8%AA%D8%AD%D9%82%D9%8A%D9%86+%D8%A8%D8%B1%D9%83%D8%A8+%28%D9%88%D9%84%D8%A7%D9%8A%D8%A9+%D8%A8%D8%B7%D9%8A%D8%AE%29+%D8%A3%D9%86+%22%D8%A7%D9%84%D8%A8%D8%B1%D9%86%D8%A7%D9%85%D8%AC+%D9%82%D8%AF%D9%85+%D9%84%D9%8A+%D9%84%D8%BA%D8%A9%D9%8B+%D8%AC%D8%AF%D9%8A%D8%AF%D8%A9+%D9%81%D9%8A+%D8%A7%D9%84%D8%AA%D8%B9%D8%A7%D9%85%D9%84+%D9%85%D8%B9+%D8%A7%D9%84%D9%85%D8%AC%D8%AA%D9%85%D8%B9%D8%8C+%D9%84%D8%A3%D9%86%D9%86%D9%8A+%D8%A8%D8%B7%D8%A8%D8%B9%D9%8A+%D8%B4%D8%AE%D8%B5+%D8%AE%D8%AC%D9%88%D9%84+%D9%88%D8%B4%D8%A8%D9%87+%D8%A7%D9%86%D8%B7%D9%88%D8%A7%D8%A6%D9%8A%22.+%D9%8A%D8%AA%D8%AD%D8%AF%D8%AB+%D8%A3%D8%A8%D9%88+%D8%A7%D9%84%D9%87%D9%8A%D9%84+%22%D8%A3%D9%86%D8%A7+%D8%A7%D8%B9%D9%85%D9%84+%D9%88%D8%A7%D8%B4%D8%AA%D8%BA%D9%84+%D8%B9%D9%84%D9%89+%D8%A7%D9%84%D8%AD%D8%AF%D8%AB+%D8%A7%D9%83%D8%AB%D8%B1+%D9%85%D9%86+%D8%A7%D8%B4%D8%AA%D8%BA%D8%A7%D9%84%D9%8A+%D8%B9%D9%84%D9%89+%D8%A7%D9%84%D8%B4%D8%AE%D8%B5%D9%8A%D8%A9%D8%8C+%D9%88%D9%87%D8%B0%D8%A7+%D8%A3%D8%B1%D8%A7%D9%87+%D8%B6%D8%B1%D9%88%D8%B1%D9%8A%D8%A7%D9%8B+%D9%81%D9%8A+%D8%A7%D9%84%D9%85%D8%B1%D8%AD%D9%84%D8%A9+%D8%A7%D9%84%D8%AD%D8%A7%D9%84%D9%8A%D8%A9+%D8%A8%D8%A7%D9%84%D8%A3%D9%82%D9%84%22.+%D9%88%D9%8A%D8%AC%D8%AF+%D8%A3%D8%A8%D9%88+%D8%A7%D9%84%D9%87%D9%8A%D9%84+%D9%86%D9%81%D8%B3%D9%87+%D9%81%D9%8A+%22%D8%A7%D9%84%D9%85%D8%B3%D8%B1%D8%AD%D8%8C+%D8%A3%D8%AD%D8%A8%D9%87+%D8%A7%D9%83%D8%AB%D8%B1+%D9%85%D9%86+%D8%A7%D9%84%D8%AA%D9%84%D9%81%D8%B2%D9%8A%D9%88%D9%86%D8%8C+%D9%84%D9%83%D9%86+%D8%A8%D9%83%D9%84+%D8%A7%D9%84%D8%A3%D8%AD%D9%88%D8%A7%D9%84+%D9%8A%D8%AC%D8%A8+%D8%A3%D9%86+%D9%8A%D8%AC%D8%B1%D8%A8+%D8%A7%D9%84%D9%85%D9%85%D8%AB%D9%84+%D9%83%D9%84+%D8%A7%D9%84%D8%AA%D8%AC%D8%A7%D8%B1%D8%A8%22.+%D9%88%D8%A7%D8%A8%D9%88+%D8%A7%D9%84%D9%87%D9%8A%D9%84+%D9%85%D8%B9%D8%AC%D8%A8+%D8%A8%D8%AA%D8%AC%D8%A7%D8%B1%D8%A8+%D9%83%D9%88%D9%85%D9%8A%D8%AF%D9%8A%D8%A9+%D9%85%D8%AB%D9%84+%22%D8%A3%D9%8A%D8%A7%D8%AF+%D8%B1%D8%A7%D8%B6%D9%8A%D8%8C+%D8%A3%D8%AD%D8%A8%D9%87+%D8%AC%D8%AF%D8%A7%D8%8C+%D8%A5%D8%AD%D8%B3%D8%A7%D9%86+%D8%AF%D8%B9%D8%AF%D9%88%D8%B4+%D8%A3%D9%8A%D8%B6%D8%A7%D8%8C+%D9%88%D9%85%D9%86+%D8%AE%D8%A7%D8%B1%D8%AC+%D8%A7%D9%84%D8%B9%D8%B1%D8%A7%D9%82+%D8%A3%D8%AD%D8%A8+%D9%85%D8%B3%D9%84%D8%B3%D9%84+%D9%81%D8%B1%D9%8A%D9%86%D8%AF%D8%B2%D8%8C+%D9%88%D8%A7%D9%84%D9%83%D9%88%D9%85%D9%8A%D8%AF%D9%8A%D8%A7+%D8%A7%D9%84%D9%85%D8%B5%D8%B1%D9%8A%D8%A9+%D8%A8%D8%B4%D9%83%D9%84+%D8%B9%D8%A7%D9%85%D8%8C+%D9%84%D9%83%D9%86+%D8%A7%D9%84%D9%81%D8%B1%D9%8A%D9%82+%D8%A7%D9%84%D8%B0%D9%8A+%D8%A7%D9%86%D8%A7+%D9%81%D9%8A%D9%87+%D9%87%D9%85+%D8%A7%D8%B3%D8%A7%D8%AA%D8%B0%D8%AA%D9%8A+%D9%88%D8%A3%D8%B5%D8%AF%D9%82%D8%A7%D8%A6%D9%8A+%D9%88%D8%A3%D8%AE%D9%88%D8%AA%D9%8A%22.+%D8%AD%D9%85%D9%84+%D8%A7%D9%84%D8%AA%D8%B7%D8%A8%D9%8A%D9%82+%D8%B9%D9%84%D9%89+%D8%AC%D9%88%D8%AC%D9%84+%D8%A8%D9%84%D8%A7%D9%8A+%D8%AD%D9%85%D9%84+%D8%A7%D9%84%D8%AA%D8%B7%D8%A8%D9%8A%D9%82+%D8%B9%D9%84%D9%89+%D9%85%D8%AA%D8%AC%D8%B1+%D8%A7%D9%84%D8%AA%D8%B7%D8%A8%D9%8A%D9%82%D8%A7%D8%AA
